^C:\USERS\JFELT\DOCUMENTS\CRYENGINE PROJECTS\ENVY_BLANK\SOLUTIONS\WIN64\CMAKEFILES\3.14.5\COMPILERIDC\CMAKECCOMPILERID.C
C:\PROGRAM FILES (X86)\MICROSOFT VISUAL STUDIO\2019\COMMUNITY\VC\TOOLS\MSVC\14.24.28314\BIN\HOSTX64\X64\1033\CLUI.DLL
C:\WINDOWS\GLOBALIZATION\SORTING\SORTDEFAULT.NLS
C:\WINDOWS\SYSTEM32\TZRES.DLL
