^C:\USERS\JFELT\DOCUMENTS\CRYENGINE PROJECTS\ENVY_BLANK\CODE\CMAKELISTS.TXT
setlocal
"C:\Program Files (x86)\Crytek\CRYENGINE Launcher\Crytek\CRYENGINE_5.6\Tools\CMake\Win32\bin\cmake.exe" "-SC:/Users/jfelt/Documents/CRYENGINE Projects/envy_blank/Code" "-BC:/Users/jfelt/Documents/CRYENGINE Projects/envy_blank/solutions/win64" --check-stamp-file "C:/Users/jfelt/Documents/CRYENGINE Projects/envy_blank/solutions/win64/CMakeFiles/generate.stamp"
if %errorlevel% neq 0 goto :cmEnd
:cmEnd
endlocal & call :cmErrorLevel %errorlevel% & goto :cmDone
:cmErrorLevel
exit /b %1
:cmDone
if %errorlevel% neq 0 goto :VCEnd
